<?xml version="1.0" encoding="UTF-8" standalone="no"?>
<svg
   xmlns:dc="http://purl.org/dc/elements/1.1/"
   xmlns:cc="http://creativecommons.org/ns#"
   xmlns:rdf="http://www.w3.org/1999/02/22-rdf-syntax-ns#"
   xmlns:svg="http://www.w3.org/2000/svg"
   xmlns="http://www.w3.org/2000/svg"
   xmlns:xlink="http://www.w3.org/1999/xlink"
   xmlns:sodipodi="http://sodipodi.sourceforge.net/DTD/sodipodi-0.dtd"
   xmlns:inkscape="http://www.inkscape.org/namespaces/inkscape"
   height="32pt"
   viewBox="0 0 46 32"
   width="46pt"
   version="1.1"
   id="svg1328"
   sodipodi:docname="button_square_active.svg"
   inkscape:version="1.0.1 (c497b03c, 2020-09-10)">
  <metadata
     id="metadata1334">
    <rdf:RDF>
      <cc:Work
         rdf:about="">
        <dc:format>image/svg+xml</dc:format>
        <dc:type
           rdf:resource="http://purl.org/dc/dcmitype/StillImage" />
        <dc:title />
      </cc:Work>
    </rdf:RDF>
  </metadata>
  <defs
     id="defs1332">
    <radialGradient
       inkscape:collect="always"
       xlink:href="#t"
       id="radialGradient3596"
       gradientUnits="userSpaceOnUse"
       gradientTransform="matrix(335.56861,0,0,337.57035,-135.02285,121.67076)"
       cx="0"
       cy="0"
       r="1" />
    <radialGradient
       inkscape:collect="always"
       xlink:href="#t"
       id="radialGradient3598"
       gradientUnits="userSpaceOnUse"
       gradientTransform="matrix(335.56861,0,0,337.57035,-135.02285,121.67076)"
       cx="0"
       cy="0"
       r="1" />
    <radialGradient
       inkscape:collect="always"
       xlink:href="#n"
       id="radialGradient3600"
       gradientUnits="userSpaceOnUse"
       gradientTransform="matrix(335.56861,0,0,337.57035,-135.02285,121.67076)"
       cx="0"
       cy="0"
       r="1" />
    <radialGradient
       inkscape:collect="always"
       xlink:href="#n"
       id="radialGradient3602"
       gradientUnits="userSpaceOnUse"
       gradientTransform="matrix(335.56861,0,0,337.57035,-135.02285,121.67076)"
       cx="0"
       cy="0"
       r="1" />
    <filter
       inkscape:collect="always"
       style="color-interpolation-filters:sRGB"
       id="filter2420"
       x="-0.0058938324"
       width="1.0117877"
       y="-0.0058662323"
       height="1.0117325">
      <feGaussianBlur
         inkscape:collect="always"
         stdDeviation="0.059555417"
         id="feGaussianBlur2422" />
    </filter>
  </defs>
  <sodipodi:namedview
     pagecolor="#ffffff"
     bordercolor="#666666"
     borderopacity="1"
     objecttolerance="10"
     gridtolerance="10"
     guidetolerance="10"
     inkscape:pageopacity="0"
     inkscape:pageshadow="2"
     inkscape:window-width="1280"
     inkscape:window-height="755"
     id="namedview1330"
     showgrid="false"
     inkscape:zoom="8.890625"
     inkscape:cx="48"
     inkscape:cy="27.500879"
     inkscape:window-x="0"
     inkscape:window-y="23"
     inkscape:window-maximized="1"
     inkscape:current-layer="svg1328"
     inkscape:document-rotation="0" />
  <radialGradient
     id="a"
     cx="0"
     cy="0"
     gradientTransform="matrix(90.013592,0,0,337.57035,64.818122,121.67076)"
     gradientUnits="userSpaceOnUse"
     r="1"
     xlink:href="#n" />
  <radialGradient
     id="b"
     cx="0"
     cy="0"
     gradientTransform="matrix(335.56861,0,0,337.57035,-135.02285,121.67076)"
     gradientUnits="userSpaceOnUse"
     r="1"
     xlink:href="#n" />
  <radialGradient
     id="c"
     cx="0"
     cy="0"
     gradientTransform="matrix(335.56861,0,0,337.57035,-135.02285,121.67076)"
     gradientUnits="userSpaceOnUse"
     r="1"
     xlink:href="#t" />
  <clipPath
     id="d">
    <path
       d="M 12.160156,6.113281 H 172.91406 V 51.574219 H 12.160156 Z m 0,0"
       id="path1198" />
  </clipPath>
  <clipPath
     id="e">
    <path
       d="M 113.67578,51.402344 H 12.269531 V 6.359375 h 63.835938 l 16.109375,8.101563 h 73.714846 c 2.63281,9.441406 4.92578,19.078124 6.85937,28.839843 h -43.01562 z"
       id="path1201" />
  </clipPath>
  <clipPath
     id="f">
    <path
       d="M 11,5 H 173.58594 V 52.933594 H 11 Z m 0,0"
       id="path1204" />
  </clipPath>
  <clipPath
     id="g">
    <path
       d="M 113.94531,52.527344 H 11.148438 V 5.234375 h 65.222656 l 16.097656,8.105469 h 73.14062 c 0.0625,0.191406 0.10547,0.363281 0.16797,0.554687 H 92.339844 L 76.234375,5.800781 H 11.703125 V 51.960938 H 113.80469 l 16.10937,-8.09375 h 42.99219 c 0.0312,0.191406 0.0742,0.363281 0.10547,0.558593 h -42.96875 z"
       id="path1207" />
  </clipPath>
  <radialGradient
     id="h"
     cx="0"
     cy="0"
     gradientTransform="matrix(335.56861,0,0,337.57035,-135.02285,121.67076)"
     gradientUnits="userSpaceOnUse"
     r="1">
    <stop
       offset="0"
       stop-color="#c2c7c9"
       id="stop1210" />
    <stop
       offset="1"
       stop-color="#c1c0c1"
       id="stop1212" />
  </radialGradient>
  <clipPath
     id="i">
    <path
       d="M 11.480469,5.480469 H 172.91406 V 52 H 11.480469 Z m 0,0"
       id="path1215" />
  </clipPath>
  <clipPath
     id="j">
    <path
       d="M 113.80469,51.960938 H 11.703125 V 5.800781 h 64.53125 l 16.105469,8.09375 h 73.437496 c 0.043,0.183594 0.0977,0.386719 0.15235,0.566407 H 92.214844 L 76.105469,6.359375 H 12.269531 V 51.402344 H 113.67578 l 16.09766,-8.101563 h 43.01562 c 0.043,0.191407 0.0742,0.375 0.11719,0.566407 h -42.99219 z"
       id="path1218" />
  </clipPath>
  <radialGradient
     id="k"
     cx="0"
     cy="0"
     gradientTransform="matrix(335.56861,0,0,337.57035,-135.02285,121.67076)"
     gradientUnits="userSpaceOnUse"
     r="1">
    <stop
       offset="0"
       stop-color="#c5c7cb"
       id="stop1221" />
    <stop
       offset="1"
       stop-color="#c3c3c3"
       id="stop1223" />
  </radialGradient>
  <clipPath
     id="l">
    <path
       d="m 117,48.179688 h 28.22266 v 7.464843 H 117 Z m 0,0"
       id="path1226" />
  </clipPath>
  <clipPath
     id="m">
    <path
       d="m 131.27734,55.449219 h -14.14453 l 13.85938,-6.96875 h 14.15625 z"
       id="path1229" />
  </clipPath>
  <radialGradient
     id="n"
     cx="0"
     cy="0"
     gradientTransform="matrix(335.56861,0,0,337.57035,-135.02285,121.67076)"
     gradientUnits="userSpaceOnUse"
     r="1">
    <stop
       offset="0"
       stop-color="#36404d"
       id="stop1232" />
    <stop
       offset="1"
       stop-color="#36353a"
       id="stop1234" />
  </radialGradient>
  <clipPath
     id="o">
    <path
       d="m 114.14453,47 h 35.80469 v 10 h -35.80469 z m 0,0"
       id="path1237" />
  </clipPath>
  <clipPath
     id="p">
    <path
       d="m 131.54687,56.574219 h -0.1289 v -1.125 H 114.625 l 16.10937,-8.101563 h 19.16016 -11.82031 v 1.132813 h -7.08203 l -13.85938,6.96875 h 14.14453 l 13.8711,-6.96875 h 2.5039 z"
       id="path1240" />
  </clipPath>
  <clipPath
     id="q">
    <path
       d="M 1.761719,55.449219 H 131.41797 v 1.125 H 1.761719 Z m 0,0"
       id="path1243" />
  </clipPath>
  <clipPath
     id="r">
    <path
       d="m 138,47 h 36 v 1.867188 h -36 z m 0,0"
       id="path1246" />
  </clipPath>
  <clipPath
     id="s">
    <path
       d="m 173.78125,48.480469 h -35.70703 v -1.132813 h 35.5039 c 0.0625,0.375 0.13672,0.757813 0.20313,1.132813"
       id="path1249" />
  </clipPath>
  <radialGradient
     id="t"
     cx="0"
     cy="0"
     gradientTransform="matrix(335.56861,0,0,337.57035,-135.02285,121.67076)"
     gradientUnits="userSpaceOnUse"
     r="1">
    <stop
       offset="0"
       stop-color="#6f7276"
       id="stop1252" />
    <stop
       offset="1"
       stop-color="#6f7173"
       id="stop1254" />
  </radialGradient>
  <clipPath
     id="u">
    <path
       d="M 8.226562,1.175781 H 85.792969 V 2.3125 H 8.226562 Z m 0,0"
       id="path1257" />
  </clipPath>
  <clipPath
     id="v">
    <path
       d="m 2.304688,2.3125 h 4.8125 v 6.925781 h -4.8125 z m 0,0"
       id="path1260" />
  </clipPath>
  <clipPath
     id="w">
    <path
       d="M 1.183594,1.175781 H 8.226562 V 2.3125 H 1.183594 Z M 7.117188,2.3125 H 8.226562 V 9.238281 H 7.117188 Z m -5.933594,0 H 2.304688 V 9.238281 H 1.183594 Z m 0,6.925781 h 7.042968 v 1.132813 H 1.183594 Z m 0,0"
       id="path1263" />
  </clipPath>
  <g
     clip-path="url(#d)"
     transform="matrix(0.55541888,0,0,0.5268722,1.0717985,0.48839215)"
     id="g1270">
    <g
       clip-path="url(#e)"
       id="g1268"
       style="fill:#a038ff;fill-opacity:0.345098">
      <path
         d="M 44.818482,51.780504 12.269531,51.402344 V 6.359375 L 54.932716,5.7947683 55.396752,46.234779 Z"
         fill="#0f0"
         fill-opacity=".196078"
         id="path1266"
         style="fill:#a038ff;fill-opacity:0.345098" />
    </g>
  </g>
  <path
     d="m 32.138621,25.066813 -0.299234,-0.0979 7.75e-4,-21.6365847 0.29842,0.00955 z"
     fill="#c2c1c1"
     stroke-width="0.611014"
     id="path1272"
     style="fill:#c830ff;fill-opacity:1" />
  <g
     clip-path="url(#f)"
     transform="matrix(0.5268722,0,0,0.5268722,1.422053,0.48839215)"
     id="g1278"
     style="fill:#c830ff;fill-opacity:1">
    <g
       clip-path="url(#g)"
       id="g1276"
       style="fill:#c830ff;fill-opacity:1">
      <path
         d="M 46.958528,52.527344 H 11.148438 V 5.234375 h 46.661103 l 0.128446,0.566406 H 11.703125 v 46.160157 h 35.528694 z"
         fill="url(#h)"
         id="path1274"
         style="fill:#c830ff;fill-opacity:1" />
    </g>
  </g>
  <path
     d="m 31.839387,24.968917 -0.298426,-0.05221 V 3.7401387 l 0.298426,-0.164338 z"
     fill="#c4c4c3"
     stroke-width="0.618359"
     id="path1280"
     style="fill:#c830ff;fill-opacity:1" />
  <g
     clip-path="url(#i)"
     transform="matrix(0.5268722,0,0,0.5268722,1.422053,0.48839215)"
     id="g1286"
     style="fill:#c830ff;fill-opacity:1">
    <g
       clip-path="url(#j)"
       id="g1284"
       style="fill:#c830ff;fill-opacity:1">
      <path
         d="M 47.231819,51.960938 H 11.703125 L 11.814992,5.800781 h 22.914062 l 22.988641,0.00414 c 0.01578,0.022822 0.02908,0.1033031 -0.07193,0.2497347 C 55.999883,8.4406495 26.428382,6.359375 12.269531,6.359375 v 45.042969 l 34.964468,0.0029 z"
         fill="url(#k)"
         id="path1282"
         style="fill:#c830ff;fill-opacity:1" />
    </g>
  </g>
  <g
     clip-path="url(#l)"
     transform="matrix(0.5534416,0,0,0.53158901,-37.142203,0.5032059)"
     id="g1292">
    <g
       clip-path="url(#m)"
       id="g1290">
      <path
         d="m 131.27734,55.449219 h -14.14453 l 13.85938,-6.96875 h 14.15625 z"
         fill="url(#b)"
         id="path1288"
         style="fill:url(#b)" />
    </g>
  </g>
  <g
     clip-path="url(#o)"
     transform="matrix(0.57538895,0,0,0.56657478,-40.064062,-1.2761669)"
     id="g1298">
    <g
       clip-path="url(#p)"
       id="g1296">
      <path
         d="m 131.54687,56.574219 h -0.1289 v -1.125 H 114.625 l 16.10937,-8.101563 h 19.16016 -11.82031 v 1.132813 h -7.08203 l -13.85938,6.96875 h 14.14453 l 13.8711,-6.96875 h 2.5039 z"
         fill="url(#b)"
         id="path1294"
         style="fill:url(#radialGradient3602)" />
    </g>
  </g>
  <g
     clip-path="url(#q)"
     transform="matrix(0.22816446,0,0,0.6458734,5.6366224,-5.7624249)"
     id="g1302">
    <path
       d="M 131.41797,56.574219 H 1.761719 v -1.125 H 131.41797 Z"
       fill="url(#b)"
       id="path1300"
       style="fill:url(#radialGradient3600)" />
  </g>
  <g
     clip-path="url(#r)"
     transform="matrix(0.6458734,0,0,0.5671669,-50.471257,-1.3048734)"
     id="g1308">
    <g
       clip-path="url(#s)"
       id="g1306">
      <path
         d="m 147.65234,48.480469 h -9.57812 v -1.132813 h 9.52364 c 0.0168,0.375 0.0367,0.757813 0.0545,1.132813"
         fill="url(#a)"
         stroke-width="0.517921"
         id="path1304"
         style="fill:url(#a)" />
    </g>
  </g>
  <g
     clip-path="url(#u)"
     transform="matrix(0.38899085,0,0,0.6458734,1.8158873,0.41637532)"
     id="g1312">
    <path
       d="M 85.792969,2.3125 H 8.226562 V 1.175781 H 1.75 85.792969 Z"
       fill="url(#c)"
       id="path1310"
       style="fill:url(#c)" />
  </g>
  <g
     clip-path="url(#v)"
     id="g1316"
     transform="matrix(0.6458734,0,0,0.6458734,0.41914211,0.41637532)">
    <path
       d="m 2.304688,9.238281 h 4.8125 V 2.3125 h -4.8125 z m 0,0"
       fill="url(#t)"
       id="path1314"
       style="fill:url(#radialGradient3598)" />
  </g>
  <g
     clip-path="url(#w)"
     id="g1320"
     transform="matrix(0.6458734,0,0,0.6458734,0.41914211,0.41637532)">
    <path
       d="M 8.226562,10.371094 H 1.183594 V 1.175781 H 8.226562 Z M 2.304688,2.3125 v 6.925781 h 4.8125 V 2.3125 Z"
       fill="url(#t)"
       id="path1318"
       style="fill:url(#radialGradient3596)" />
  </g>
  <g
     fill="#c4c4c3"
     stroke-width="0.527399"
     id="g1326"
     style="fill:#c830ff;fill-opacity:1"
     transform="matrix(0.6458734,0,0,0.6458734,0.41914211,0.41637532)">
    <path
       d="m 40.082226,42.498716 -0.244926,-0.392558 8.348333,-4.172519 0.46205,0.08084 z"
       id="path1322"
       style="fill:#c830ff;fill-opacity:1" />
    <path
       d="m 39.859289,42.960763 -0.244927,-0.392558 9.033321,-4.553725 0.463302,0.151571 z"
       id="path1324"
       style="fill:#c830ff;fill-opacity:1" />
  </g>
  <path
     style="fill:none;stroke:#faeaff;stroke-width:0.375;stroke-linecap:butt;stroke-linejoin:miter;stroke-opacity:0.98431373;opacity:0.999;stroke-miterlimit:4;stroke-dasharray:none;filter:url(#filter2420)"
     d="m 7.6470435,3.5446624 -0.058942,24.3205036 18.4169005,0.04488 5.834383,-2.94113 V 3.5758 Z"
     id="path2362" />
</svg>
