<?xml version="1.0" encoding="UTF-8" standalone="no"?>
<svg
   xmlns:dc="http://purl.org/dc/elements/1.1/"
   xmlns:cc="http://creativecommons.org/ns#"
   xmlns:rdf="http://www.w3.org/1999/02/22-rdf-syntax-ns#"
   xmlns:svg="http://www.w3.org/2000/svg"
   xmlns="http://www.w3.org/2000/svg"
   xmlns:sodipodi="http://sodipodi.sourceforge.net/DTD/sodipodi-0.dtd"
   xmlns:inkscape="http://www.inkscape.org/namespaces/inkscape"
   viewBox="0 0 512 512"
   version="1.1"
   id="svg1416"
   sodipodi:docname="translate.svg"
   inkscape:version="1.0.1 (c497b03c, 2020-09-10)">
  <metadata
     id="metadata1422">
    <rdf:RDF>
      <cc:Work
         rdf:about="">
        <dc:format>image/svg+xml</dc:format>
        <dc:type
           rdf:resource="http://purl.org/dc/dcmitype/StillImage" />
      </cc:Work>
    </rdf:RDF>
  </metadata>
  <defs
     id="defs1420" />
  <sodipodi:namedview
     pagecolor="#ffffff"
     bordercolor="#666666"
     borderopacity="1"
     objecttolerance="10"
     gridtolerance="10"
     guidetolerance="10"
     inkscape:pageopacity="0"
     inkscape:pageshadow="2"
     inkscape:window-width="1280"
     inkscape:window-height="755"
     id="namedview1418"
     showgrid="false"
     inkscape:zoom="1.1113281"
     inkscape:cx="256"
     inkscape:cy="256"
     inkscape:window-x="0"
     inkscape:window-y="23"
     inkscape:window-maximized="1"
     inkscape:current-layer="svg1416"
     inkscape:document-rotation="0" />
  <path
     d="m256 0c-1.2452 0-2.4586.12791-3.6387.35156-.0659.012567-.13349.018008-.19922.03125-.57894.11595-1.146.26357-1.7051.42969-.047.01399-.0957.022767-.14258.037109-1.8151.55436-3.5159 1.3682-5.0625 2.3965-.0312.020703-.0646.037706-.0957.058594-.32576.21931-.63201.46307-.94336.70117-.70605.53787-1.3906 1.1059-2.0234 1.7422l-75.18 75.828c-7.563 7.628-7.5048 19.937.11718 27.5 7.628 7.557 19.941 7.5048 27.498-.11719l41.932-42.291v169.89h-169.88l42.295-41.926c7.622-7.563 7.6782-19.87.11523-27.498s-19.876-7.6802-27.498-.11719l-75.828 75.18c-.00297.003-.00485.007-.00781.01-2.2463 2.2302-3.9501 5.0041-4.8984 8.1094-.004708.0154-.007049.0315-.011719.0469-.17839.58935-.3326 1.1892-.45508 1.8008-.013248.0657-.018677.13332-.03125.19922-.10655.56223-.19883 1.1288-.25586 1.707-.062671.63522-.095706 1.2794-.095706 1.9314s.033035 1.2962.095703 1.9316c.057025.57824.14931 1.1448.25586 1.707.012572.0659.018003.13349.03125.19922.11595.57894.26357 1.146.42969 1.7051.014761.0496.023909.10093.039062.15039.56503 1.8473 1.396 3.5783 2.4512 5.1465.35511.52775.73293 1.0381 1.1367 1.5274.00265.003.00516.007.00781.01.067158.0815.14629.15391.21484.23438.33891.39681.68535.78801 1.0547 1.1562.01376.0137.025257.0293.039063.043l75.826 75.18c3.791 3.753 8.7375 5.6328 13.689 5.6328 5.003 0 10.007-1.9189 13.805-5.7559 7.563-7.628 7.5048-19.935-.11719-27.498l-42.289-41.926h169.89v169.89l-41.926-42.289c-7.557-7.635-19.87-7.667-27.498-.12305-7.622 7.563-7.6802 19.872-.11719 27.5l75.18 75.826c.003.003.007.005.01.008 1.3458 1.3556 2.8885 2.5158 4.584 3.4297.0637.0343.13128.0602.19532.0937.50006.26239 1.0086.50958 1.5332.72852.0287.012.0591.0194.0879.0312.55148.22706 1.1139.43292 1.6894.60937.13059.0401.26501.0662.39649.10352.48459.13741.97149.26916 1.4707.36914.0657.0132.13332.0187.19922.0312 1.1798.22361 2.3932.35152 3.6384.35152 1.8194 0 3.572-.26909 5.2422-.73633.15543-.0435.31454-.0738.46875-.12109 1.1011-.33792 2.1539-.78025 3.1621-1.2988.11472-.0588.23407-.10685.34765-.16797.37259-.20111.72848-.42812 1.0859-.65234.1868-.11676.38143-.22052.56445-.34375.10467-.0707.19953-.15388.30274-.22657.93571-.65673 1.8271-1.3857 2.6445-2.209l75.18-75.826c7.556-7.628 7.503-19.937-.125-27.5-7.635-7.557-19.941-7.505-27.498.12305l-41.932 42.299v-169.9h169.89l-42.293 41.926c-7.628 7.563-7.68 19.87-.12305 27.498 3.804 3.837 8.8076 5.7559 13.811 5.7559 4.945 0 9.8984-1.8808 13.689-5.6328l75.826-75.18c.0141-.014.0269-.0289.041-.043.2515-.2508.48121-.52292.71875-.78711.18447-.20534.38168-.40105.55664-.61328.404-.48955.78339-.9993 1.1387-1.5274.0249-.0371.0437-.0779.0684-.11523.32713-.4935.63802-.99972.91992-1.5234.0324-.0604.0561-.12484.0879-.18555.26306-.50133.51109-1.0112.73047-1.5371.0125-.0301.0208-.0617.0332-.0918.22497-.54707.42834-1.105.60352-1.6758.0473-.15419.0776-.31334.12109-.46875.13019-.46537.25974-.93139.35547-1.4102.0128-.0637.0171-.12948.0293-.19336.22362-1.1801.35153-2.3934.35153-3.6386 0-1.3125-.13302-2.5925-.38086-3.832-.0004-.002-.002-.004-.002-.006-.0955-.47674-.22387-.94085-.35352-1.4043-.0435-.15541-.0738-.31456-.12109-.46875-.18478-.60207-.39663-1.192-.63672-1.7676-.00056-.001-.001-.003-.002-.004-.24542-.58801-.51657-1.1617-.81641-1.7188-.002-.003-.004-.006-.006-.01-.30165-.55963-.62921-1.1039-.98242-1.6289-.0008-.001-.001-.003-.002-.004-.35459-.52676-.73364-1.035-1.1367-1.5234-.17496-.21223-.37217-.40794-.55664-.61328-.23754-.26419-.46725-.53631-.71875-.78711-.0141-.014-.0269-.029-.041-.043l-75.826-75.18c-7.635-7.563-19.943-7.5048-27.5.11718-7.557 7.628-7.505 19.935.12305 27.498l42.295 41.932h-169.89v-169.89l41.926 42.289c3.804 3.837 8.8076 5.7559 13.811 5.7559 4.945 0 9.8955-1.8738 13.688-5.6328 7.628-7.563 7.68-19.872.12304-27.5l-75.18-75.826c-.0137-.013805-.0292-.025303-.043-.039063-.44175-.44306-.90413-.86662-1.3867-1.2656-.005-.00382-.009-.0079-.0137-.011719-3.3608-2.7735-7.6688-4.4395-12.367-4.4395z"
     fill="#30ff30"
     id="path1414"
     style="fill:#c830ff;fill-opacity:1" />
</svg>
